EESchema Schematic File Version 4
EELAYER 29 0
EELAYER END
$Descr A4 11693 8268
encoding utf-8
Sheet 1 1
Title ""
Date ""
Rev ""
Comp ""
Comment1 ""
Comment2 ""
Comment3 ""
Comment4 ""
$EndDescr
$Comp
L Device:C C2
U 1 1 5D0B4B7C
P 4500 2600
F 0 "C2" H 4615 2646 50  0000 L CNN
F 1 "C" H 4615 2555 50  0000 L CNN
F 2 "Capacitor_SMD:C_0603_1608Metric" H 4538 2450 50  0001 C CNN
F 3 "~" H 4500 2600 50  0001 C CNN
	1    4500 2600
	1    0    0    -1  
$EndComp
Wire Wire Line
	4500 2850 4500 2750
Wire Wire Line
	5050 2450 5050 1850
Wire Wire Line
	5050 1850 6200 1850
Wire Wire Line
	6200 1850 6200 2000
$Comp
L Device:C C3
U 1 1 5D0C43F3
P 5400 3850
F 0 "C3" H 5515 3896 50  0000 L CNN
F 1 "C" H 5515 3805 50  0000 L CNN
F 2 "Capacitor_SMD:C_0603_1608Metric" H 5438 3700 50  0001 C CNN
F 3 "~" H 5400 3850 50  0001 C CNN
	1    5400 3850
	1    0    0    -1  
$EndComp
Wire Wire Line
	5600 3700 5400 3700
$Comp
L Connector:Conn_01x02_Female J1
U 1 1 5D0C5632
P 5100 3850
F 0 "J1" H 5128 3826 50  0000 L CNN
F 1 "Conn_01x02_Female" H 5128 3735 50  0000 L CNN
F 2 "Connector_PinHeader_2.54mm:PinHeader_1x02_P2.54mm_Vertical" H 5100 3850 50  0001 C CNN
F 3 "~" H 5100 3850 50  0001 C CNN
	1    5100 3850
	1    0    0    -1  
$EndComp
$Comp
L Device:R R2
U 1 1 5D0C7A18
P 7650 3300
F 0 "R2" H 7720 3346 50  0000 L CNN
F 1 "R" H 7720 3255 50  0000 L CNN
F 2 "Resistor_SMD:R_0603_1608Metric" V 7580 3300 50  0001 C CNN
F 3 "~" H 7650 3300 50  0001 C CNN
	1    7650 3300
	1    0    0    -1  
$EndComp
Wire Wire Line
	4900 3600 4900 3850
Wire Wire Line
	5600 3600 4900 3600
Wire Wire Line
	3300 5050 3500 5050
$Comp
L power:PWR_FLAG #FLG0102
U 1 1 5D0BEBE2
P 3300 5050
F 0 "#FLG0102" H 3300 5125 50  0001 C CNN
F 1 "PWR_FLAG" H 3300 5223 50  0000 C CNN
F 2 "" H 3300 5050 50  0001 C CNN
F 3 "~" H 3300 5050 50  0001 C CNN
	1    3300 5050
	1    0    0    -1  
$EndComp
Wire Wire Line
	2350 1500 2350 2450
Connection ~ 4500 2450
Wire Wire Line
	3500 5050 3500 4500
$Comp
L power:Earth #PWR0101
U 1 1 5D0B5DE2
P 3200 4500
F 0 "#PWR0101" H 3200 4250 50  0001 C CNN
F 1 "Earth" H 3200 4350 50  0001 C CNN
F 2 "" H 3200 4500 50  0001 C CNN
F 3 "~" H 3200 4500 50  0001 C CNN
	1    3200 4500
	1    0    0    -1  
$EndComp
Wire Wire Line
	3200 2450 3400 2450
Connection ~ 3200 2450
Wire Wire Line
	3200 2550 3200 2450
Wire Wire Line
	3400 2550 3200 2550
Wire Wire Line
	4000 2450 4500 2450
$Comp
L Regulator_Linear:AP2204K-3.3 U1
U 1 1 5D0B30A4
P 3700 2550
F 0 "U1" H 3700 2892 50  0000 C CNN
F 1 "AP2204K-3.3" H 3700 2801 50  0000 C CNN
F 2 "Package_TO_SOT_SMD:SOT-23-5" H 3700 2875 50  0001 C CNN
F 3 "https://www.diodes.com/assets/Datasheets/AP2204.pdf" H 3700 2650 50  0001 C CNN
	1    3700 2550
	1    0    0    -1  
$EndComp
Wire Wire Line
	2350 1500 1400 1500
Connection ~ 2350 1500
Wire Wire Line
	3700 4500 4150 4500
Wire Wire Line
	3200 4500 3500 4500
Connection ~ 3200 4500
Wire Wire Line
	3700 2850 3700 2950
Wire Wire Line
	3700 4500 3500 4500
Connection ~ 3500 4500
Connection ~ 3700 4500
Wire Wire Line
	4500 2850 4150 2850
$Comp
L Device:R R3
U 1 1 5D1C8E9C
P 1400 2600
F 0 "R3" H 1470 2646 50  0000 L CNN
F 1 "R" H 1470 2555 50  0000 L CNN
F 2 "Resistor_SMD:R_0603_1608Metric" V 1330 2600 50  0001 C CNN
F 3 "~" H 1400 2600 50  0001 C CNN
	1    1400 2600
	1    0    0    -1  
$EndComp
$Comp
L Device:R R4
U 1 1 5D1C9865
P 1400 3300
F 0 "R4" H 1470 3346 50  0000 L CNN
F 1 "R" H 1470 3255 50  0000 L CNN
F 2 "Resistor_SMD:R_0603_1608Metric" V 1330 3300 50  0001 C CNN
F 3 "~" H 1400 3300 50  0001 C CNN
	1    1400 3300
	1    0    0    -1  
$EndComp
Wire Wire Line
	1400 1500 1400 2450
Connection ~ 1400 1500
Wire Wire Line
	1400 3450 1400 4500
$Comp
L Device:R R5
U 1 1 5D1CF63D
P 4650 3250
F 0 "R5" H 4720 3296 50  0000 L CNN
F 1 "R" H 4720 3205 50  0000 L CNN
F 2 "Resistor_SMD:R_0603_1608Metric" V 4580 3250 50  0001 C CNN
F 3 "~" H 4650 3250 50  0001 C CNN
	1    4650 3250
	1    0    0    -1  
$EndComp
Wire Wire Line
	4650 3100 4650 1500
Connection ~ 4650 1500
Wire Wire Line
	4650 1500 2350 1500
Connection ~ 4150 4500
Wire Wire Line
	4150 2850 4150 4500
Wire Wire Line
	4900 3950 4900 4500
Connection ~ 4900 4500
Wire Wire Line
	4900 4500 5400 4500
Wire Wire Line
	5400 4500 5400 4100
Wire Wire Line
	4650 3400 4650 4000
Wire Wire Line
	4650 4000 4800 4000
Wire Wire Line
	4800 4000 4800 4300
Wire Wire Line
	6700 4600 6850 4600
Wire Wire Line
	7050 4900 6800 4900
Wire Wire Line
	6800 4900 6800 4300
Wire Wire Line
	5400 4500 6300 4500
Wire Wire Line
	6300 4500 6300 4600
Connection ~ 5400 4500
$Comp
L Device:LED D1
U 1 1 5D214EAC
P 5200 2700
F 0 "D1" H 5193 2916 50  0000 C CNN
F 1 "LED" H 5193 2825 50  0000 C CNN
F 2 "LED_THT:LED_D1.8mm_W1.8mm_H2.4mm_Horizontal_O1.27mm_Z8.2mm" H 5200 2700 50  0001 C CNN
F 3 "~" H 5200 2700 50  0001 C CNN
	1    5200 2700
	-1   0    0    1   
$EndComp
Wire Wire Line
	4500 2450 5050 2450
Wire Wire Line
	5050 2450 5050 2700
Connection ~ 5050 2450
Wire Wire Line
	7650 1500 7650 2550
$Comp
L Device:R R1
U 1 1 5D0C7503
P 7650 2700
F 0 "R1" H 7720 2746 50  0000 L CNN
F 1 "R" H 7720 2655 50  0000 L CNN
F 2 "Resistor_SMD:R_0603_1608Metric" V 7580 2700 50  0001 C CNN
F 3 "~" H 7650 2700 50  0001 C CNN
	1    7650 2700
	1    0    0    -1  
$EndComp
Wire Wire Line
	7650 3150 7650 3000
Wire Wire Line
	7650 3000 7650 2850
Connection ~ 7650 3000
Wire Wire Line
	7400 3000 7650 3000
Wire Wire Line
	2350 2450 2800 2450
Wire Wire Line
	1400 4500 3200 4500
Wire Wire Line
	5350 2700 5350 2750
Wire Wire Line
	7250 2700 7250 2300
Wire Wire Line
	7650 4600 8400 4600
Connection ~ 5400 4100
Wire Wire Line
	5400 4100 5400 4000
Wire Wire Line
	7350 4100 6200 4100
Wire Wire Line
	6200 4000 6200 4100
Connection ~ 6200 4100
Wire Wire Line
	6200 4100 5400 4100
NoConn ~ 5600 3400
NoConn ~ 5600 2800
NoConn ~ 5600 2700
NoConn ~ 16150 2200
NoConn ~ 10850 2750
Wire Wire Line
	2800 2450 2800 2650
Connection ~ 2800 2450
Wire Wire Line
	2800 2450 3200 2450
Wire Wire Line
	2800 2950 3700 2950
Connection ~ 3700 2950
Wire Wire Line
	3700 2950 3700 4500
$Comp
L Device:C C1
U 1 1 5D2A32F5
P 2800 2800
F 0 "C1" H 2915 2846 50  0000 L CNN
F 1 "C" H 2915 2755 50  0000 L CNN
F 2 "Capacitor_SMD:C_0603_1608Metric" H 2838 2650 50  0001 C CNN
F 3 "~" H 2800 2800 50  0001 C CNN
	1    2800 2800
	1    0    0    -1  
$EndComp
Wire Wire Line
	4650 1500 7650 1500
Wire Wire Line
	1400 4500 800  4500
Connection ~ 1400 4500
Wire Wire Line
	1000 1500 1000 1000
$Comp
L power:PWR_FLAG #FLG0101
U 1 1 5D0BBF2B
P 1000 1000
F 0 "#FLG0101" H 1000 1075 50  0001 C CNN
F 1 "PWR_FLAG" H 1000 1173 50  0000 C CNN
F 2 "" H 1000 1000 50  0001 C CNN
F 3 "~" H 1000 1000 50  0001 C CNN
	1    1000 1000
	1    0    0    -1  
$EndComp
$Comp
L Connector:Conn_01x01_Male J4
U 1 1 5D15B20A
P 800 1500
F 0 "J4" V 862 1544 50  0000 L CNN
F 1 "BAT ++" H 953 1544 50  0000 L CNN
F 2 "Connector_PinHeader_2.54mm:PinHeader_1x01_P2.54mm_Vertical" H 800 1500 50  0001 C CNN
F 3 "~" H 800 1500 50  0001 C CNN
	1    800  1500
	1    0    0    -1  
$EndComp
Wire Wire Line
	1000 1500 1400 1500
Connection ~ 1000 1500
$Comp
L Connector:Conn_01x01_Male J3
U 1 1 5D165776
P 600 4500
F 0 "J3" H 708 4681 50  0000 C CNN
F 1 "BAT --" H 708 4590 50  0000 C CNN
F 2 "Connector_PinHeader_2.54mm:PinHeader_1x01_P2.54mm_Vertical" H 600 4500 50  0001 C CNN
F 3 "~" H 600 4500 50  0001 C CNN
	1    600  4500
	1    0    0    -1  
$EndComp
$Comp
L Connector:Conn_01x01_Male J6
U 1 1 5D1682A3
P 8750 1500
F 0 "J6" H 8722 1432 50  0000 R CNN
F 1 "SOL ++" H 9000 1550 50  0000 R CNN
F 2 "Connector_PinHeader_2.54mm:PinHeader_1x01_P2.54mm_Vertical" H 8750 1500 50  0001 C CNN
F 3 "~" H 8750 1500 50  0001 C CNN
	1    8750 1500
	-1   0    0    1   
$EndComp
Wire Wire Line
	8550 1500 7650 1500
Connection ~ 7650 1500
$Comp
L Connector:Conn_01x01_Male J5
U 1 1 5D174367
P 8600 4600
F 0 "J5" H 8572 4532 50  0000 R CNN
F 1 "SOL --" H 8572 4623 50  0000 R CNN
F 2 "Connector_PinHeader_2.54mm:PinHeader_1x01_P2.54mm_Vertical" H 8600 4600 50  0001 C CNN
F 3 "~" H 8600 4600 50  0001 C CNN
	1    8600 4600
	-1   0    0    1   
$EndComp
$Comp
L Device:R R6
U 1 1 5D193CB4
P 5350 2900
F 0 "R6" H 5420 2946 50  0000 L CNN
F 1 "R" H 5420 2855 50  0000 L CNN
F 2 "Resistor_SMD:R_0603_1608Metric" V 5280 2900 50  0001 C CNN
F 3 "~" H 5350 2900 50  0001 C CNN
	1    5350 2900
	1    0    0    -1  
$EndComp
Wire Wire Line
	5350 3050 5350 3100
Wire Wire Line
	6800 2700 7250 2700
Wire Wire Line
	5350 3100 5500 3100
Wire Wire Line
	5500 3100 5500 2600
Wire Wire Line
	5500 2600 5600 2600
NoConn ~ 5600 3200
NoConn ~ 5600 3100
Wire Wire Line
	7400 3000 7100 2850
Wire Wire Line
	7100 2850 6800 2800
NoConn ~ 5600 3300
Wire Wire Line
	4350 3250 4350 4200
Wire Wire Line
	4800 4300 6500 4300
$Comp
L Transistor_FET:IRF540N Q2
U 1 1 5D23BFB9
P 6500 4500
F 0 "Q2" V 6751 4500 50  0000 C CNN
F 1 "IRF540N" V 6842 4500 50  0000 C CNN
F 2 "Package_TO_SOT_SMD:TO-263-2" H 6750 4425 50  0001 L CIN
F 3 "http://www.irf.com/product-info/datasheets/data/irf540n.pdf" H 6500 4500 50  0001 L CNN
	1    6500 4500
	0    1    1    0   
$EndComp
Connection ~ 6500 4300
Wire Wire Line
	6500 4300 6800 4300
$Comp
L Transistor_FET:IRF540N Q3
U 1 1 5D23D1BD
P 7050 4700
F 0 "Q3" H 7256 4746 50  0000 L CNN
F 1 "IRF540N" H 7256 4655 50  0000 L CNN
F 2 "Package_TO_SOT_SMD:TO-263-2" H 7300 4625 50  0001 L CIN
F 3 "http://www.irf.com/product-info/datasheets/data/irf540n.pdf" H 7050 4700 50  0001 L CNN
	1    7050 4700
	0    -1   -1   0   
$EndComp
Wire Wire Line
	7650 3450 7650 4600
Wire Wire Line
	7250 4600 7650 4600
Connection ~ 7650 4600
NoConn ~ 5600 2400
Wire Wire Line
	5450 3250 4350 3250
Wire Wire Line
	4650 4500 4900 4500
Connection ~ 4650 4500
Wire Wire Line
	4650 4400 4650 4500
$Comp
L Device:Q_NMOS_GSD Q1
U 1 1 5D23A231
P 4550 4200
F 0 "Q1" H 4756 4246 50  0000 L CNN
F 1 "Q_NMOS_GSD" H 4756 4155 50  0000 L CNN
F 2 "Package_TO_SOT_SMD:SOT-23" H 4750 4300 50  0001 C CNN
F 3 "~" H 4550 4200 50  0001 C CNN
	1    4550 4200
	1    0    0    -1  
$EndComp
Connection ~ 4650 4000
Wire Wire Line
	4150 4500 4650 4500
$Comp
L Connector:Conn_01x01_Male J2
U 1 1 5D258555
P 7250 2100
F 0 "J2" V 7312 2144 50  0000 L CNN
F 1 "Conn_01x01_Male" V 7403 2144 50  0000 L CNN
F 2 "Connector_PinHeader_2.54mm:PinHeader_1x01_P2.54mm_Vertical" H 7250 2100 50  0001 C CNN
F 3 "~" H 7250 2100 50  0001 C CNN
	1    7250 2100
	0    1    1    0   
$EndComp
Wire Wire Line
	1400 2750 1400 2900
$Comp
L MCU_ST_STM8:STM8AF6223 U2
U 1 1 5D0C2829
P 6200 3000
F 0 "U2" H 6200 4181 50  0000 C CNN
F 1 "STM8AF6223" H 6200 4090 50  0000 C CNN
F 2 "Package_SO:TSSOP-20_4.4x6.5mm_P0.65mm" H 6250 4100 50  0001 L CNN
F 3 "http://www.st.com/resource/en/datasheet/stm8af6223.pdf" H 5900 2700 50  0001 C CNN
	1    6200 3000
	1    0    0    -1  
$EndComp
Wire Wire Line
	6800 2900 1400 2900
Connection ~ 1400 2900
Wire Wire Line
	1400 2900 1400 3150
Wire Wire Line
	6800 3100 7400 3100
Wire Wire Line
	7400 3100 7400 3550
Wire Wire Line
	6800 3200 7300 3200
Wire Wire Line
	7300 3200 7300 3550
$Comp
L Connector:Conn_01x02_Male J7
U 1 1 5D272D95
P 7300 3750
F 0 "J7" V 7454 3562 50  0000 R CNN
F 1 "Conn_01x02_Male" V 7363 3562 50  0000 R CNN
F 2 "Connector_PinHeader_2.54mm:PinHeader_1x02_P2.54mm_Vertical" H 7300 3750 50  0001 C CNN
F 3 "~" H 7300 3750 50  0001 C CNN
	1    7300 3750
	0    -1   -1   0   
$EndComp
Wire Wire Line
	5450 3250 5450 3000
Wire Wire Line
	5450 3000 5600 3000
NoConn ~ 6800 3000
NoConn ~ 5600 2300
$EndSCHEMATC
