EESchema Schematic File Version 4
LIBS:esp_current_sensor-cache
EELAYER 29 0
EELAYER END
$Descr A4 11693 8268
encoding utf-8
Sheet 1 1
Title ""
Date ""
Rev ""
Comp ""
Comment1 ""
Comment2 ""
Comment3 ""
Comment4 ""
$EndDescr
$Comp
L Device:R_Small_US R2
U 1 1 5CAD9D72
P 3825 3300
F 0 "R2" V 3620 3300 50  0000 C CNN
F 1 "10k" V 3711 3300 50  0000 C CNN
F 2 "Resistor_SMD:R_0603_1608Metric_Pad1.05x0.95mm_HandSolder" H 3825 3300 50  0001 C CNN
F 3 "~" H 3825 3300 50  0001 C CNN
	1    3825 3300
	0    1    1    0   
$EndComp
$Comp
L Device:R_Small_US R1
U 1 1 5CAD9EF6
P 3615 3485
F 0 "R1" V 3410 3485 50  0000 C CNN
F 1 "10k" V 3501 3485 50  0000 C CNN
F 2 "Resistor_SMD:R_0603_1608Metric_Pad1.05x0.95mm_HandSolder" H 3615 3485 50  0001 C CNN
F 3 "~" H 3615 3485 50  0001 C CNN
	1    3615 3485
	0    1    1    0   
$EndComp
$Comp
L Device:R_Small_US R3
U 1 1 5CAD9F69
P 5385 3095
F 0 "R3" V 5180 3095 50  0000 C CNN
F 1 "10k" V 5271 3095 50  0000 C CNN
F 2 "Resistor_SMD:R_0603_1608Metric_Pad1.05x0.95mm_HandSolder" H 5385 3095 50  0001 C CNN
F 3 "~" H 5385 3095 50  0001 C CNN
	1    5385 3095
	0    1    1    0   
$EndComp
$Comp
L Device:R_Small_US R4
U 1 1 5CADA011
P 5410 4730
F 0 "R4" V 5205 4730 50  0000 C CNN
F 1 "10k" V 5296 4730 50  0000 C CNN
F 2 "Resistor_SMD:R_0603_1608Metric_Pad1.05x0.95mm_HandSolder" H 5410 4730 50  0001 C CNN
F 3 "~" H 5410 4730 50  0001 C CNN
	1    5410 4730
	0    1    1    0   
$EndComp
$Comp
L Device:R_Small_US R5
U 1 1 5CADA044
P 5385 2960
F 0 "R5" V 5180 2960 50  0000 C CNN
F 1 "10k" V 5271 2960 50  0000 C CNN
F 2 "Resistor_SMD:R_0603_1608Metric_Pad1.05x0.95mm_HandSolder" H 5385 2960 50  0001 C CNN
F 3 "~" H 5385 2960 50  0001 C CNN
	1    5385 2960
	0    1    1    0   
$EndComp
Wire Wire Line
	3665 3755 3665 3840
Wire Wire Line
	4065 3955 4065 3845
Wire Wire Line
	3925 3300 4185 3300
Wire Wire Line
	4290 3300 4290 3285
Wire Wire Line
	4185 3300 4185 3845
Wire Wire Line
	4185 3845 4065 3845
Connection ~ 4065 3845
Wire Wire Line
	4065 3845 4065 3755
Wire Wire Line
	3665 3840 3520 3840
Wire Wire Line
	3520 3840 3520 3970
Wire Wire Line
	3520 3970 3405 3970
Connection ~ 3665 3840
Wire Wire Line
	3665 3840 3665 3955
Wire Wire Line
	3405 3970 3405 4585
Wire Wire Line
	3715 3485 4290 3485
Wire Wire Line
	3515 3485 3405 3485
Wire Wire Line
	5850 4730 5510 4730
Wire Wire Line
	5855 3485 5855 2960
Wire Wire Line
	5490 3095 5485 3095
$Comp
L Switch:SW_Push_Dual SW2
U 1 1 5CADD575
P 6060 3665
F 0 "SW2" H 6060 3950 50  0000 C CNN
F 1 "PRG" H 6060 3859 50  0000 C CNN
F 2 "esp_current_sensor:SW_TH_Tactile_Omron_B3F-10xx" H 6060 3865 50  0001 C CNN
F 3 "" H 6060 3865 50  0001 C CNN
	1    6060 3665
	1    0    0    -1  
$EndComp
Wire Wire Line
	6725 2970 6720 2970
Connection ~ 4185 3300
Wire Wire Line
	4185 3300 4290 3300
$Comp
L Device:C_Small C2
U 1 1 5CFF1DFE
P 6370 3370
F 0 "C2" H 6462 3416 50  0000 L CNN
F 1 "10uF" H 6462 3325 50  0000 L CNN
F 2 "Capacitor_SMD:C_0603_1608Metric_Pad1.05x0.95mm_HandSolder" H 6370 3370 50  0001 C CNN
F 3 "~" H 6370 3370 50  0001 C CNN
	1    6370 3370
	1    0    0    -1  
$EndComp
Wire Wire Line
	6370 3470 6480 3470
$Comp
L power:PWR_FLAG #FLG0101
U 1 1 5D02F928
P 4250 2495
F 0 "#FLG0101" H 4250 2570 50  0001 C CNN
F 1 "PWR_FLAG" H 4250 2669 50  0000 C CNN
F 2 "" H 4250 2495 50  0001 C CNN
F 3 "~" H 4250 2495 50  0001 C CNN
	1    4250 2495
	1    0    0    -1  
$EndComp
$Comp
L power:GND #PWR0101
U 1 1 5D041757
P 4885 5165
F 0 "#PWR0101" H 4885 4915 50  0001 C CNN
F 1 "GND" H 4890 4992 50  0000 C CNN
F 2 "" H 4885 5165 50  0001 C CNN
F 3 "" H 4885 5165 50  0001 C CNN
	1    4885 5165
	1    0    0    -1  
$EndComp
Wire Wire Line
	4885 5170 4885 5165
Connection ~ 4885 5165
Wire Wire Line
	5310 4730 4890 4730
Wire Wire Line
	4890 4730 4890 4725
Wire Wire Line
	4890 4725 4880 4725
Wire Wire Line
	4880 4725 4880 4730
Wire Wire Line
	4880 4730 4885 4730
Connection ~ 4885 4730
Wire Wire Line
	4885 4730 4885 4585
Wire Wire Line
	6260 3665 6260 3760
Wire Wire Line
	6485 3570 6620 3570
Wire Wire Line
	6485 3470 6485 3570
Connection ~ 6485 3570
Wire Wire Line
	6485 3570 6485 3760
Wire Wire Line
	6260 3760 6485 3760
Connection ~ 6260 3760
Wire Wire Line
	6260 3760 6260 3865
Wire Wire Line
	3405 2495 3405 3300
Connection ~ 4250 2495
Wire Wire Line
	4250 2495 3405 2495
Wire Wire Line
	5485 2960 5855 2960
Wire Wire Line
	5285 3095 5285 2960
Wire Wire Line
	5285 2960 5285 2495
Connection ~ 5285 2960
Connection ~ 5285 2495
Wire Wire Line
	5285 2495 4890 2495
Wire Wire Line
	4890 2495 4890 3085
Connection ~ 4890 2495
Wire Wire Line
	4890 2495 4250 2495
Wire Wire Line
	3725 3300 3405 3300
Connection ~ 3405 3300
Wire Wire Line
	3405 3300 3405 3485
Wire Wire Line
	6415 2970 6415 2495
Wire Wire Line
	6415 2495 5285 2495
Wire Wire Line
	6370 3270 6370 2970
Wire Wire Line
	6370 2970 6415 2970
Connection ~ 6415 2970
Wire Wire Line
	6620 5060 4885 5060
Connection ~ 4885 5060
Wire Wire Line
	4885 5060 4885 5165
Wire Wire Line
	4885 4730 4885 5060
$Comp
L Switch:SW_Push_Dual SW1
U 1 1 5CADA3CE
P 3865 3755
F 0 "SW1" H 3865 4040 50  0000 C CNN
F 1 "rst" H 3865 3949 50  0000 C CNN
F 2 "esp_current_sensor:SW_TH_Tactile_Omron_B3F-10xx" H 3865 3955 50  0001 C CNN
F 3 "" H 3865 3955 50  0001 C CNN
	1    3865 3755
	1    0    0    -1  
$EndComp
Wire Wire Line
	5860 3665 5860 3750
Wire Wire Line
	2835 4305 3050 4305
Wire Wire Line
	3050 3885 3050 4305
Wire Wire Line
	4290 3985 3140 3985
Wire Wire Line
	3140 3985 3140 4405
Wire Wire Line
	3140 4405 2835 4405
Wire Wire Line
	4290 4085 3535 4085
Wire Wire Line
	3535 4085 3190 4090
Wire Wire Line
	3190 4090 3190 4505
Wire Wire Line
	3190 4505 2835 4505
Wire Wire Line
	4290 4285 3365 4285
Wire Wire Line
	3365 4285 3365 4705
Wire Wire Line
	2835 4705 3365 4705
Wire Wire Line
	3225 4600 2880 4600
Wire Wire Line
	2880 4600 2880 4605
Wire Wire Line
	2880 4605 2835 4605
Wire Wire Line
	4235 4805 4235 4385
Wire Wire Line
	4290 4185 3225 4185
Wire Wire Line
	5490 3095 5490 3185
$Comp
L Connector:Conn_01x05_Male J2
U 1 1 5D7E113C
P 7455 3585
F 0 "J2" H 7427 3517 50  0000 R CNN
F 1 "Conn_01x05_Male" H 7427 3608 50  0000 R CNN
F 2 "Connector_PinHeader_2.54mm:PinHeader_1x05_P2.54mm_Vertical" H 7455 3585 50  0001 C CNN
F 3 "~" H 7455 3585 50  0001 C CNN
	1    7455 3585
	-1   0    0    1   
$EndComp
Wire Wire Line
	5490 3585 6935 3585
Wire Wire Line
	6935 3585 6935 3485
Wire Wire Line
	6935 3485 7255 3485
Wire Wire Line
	6620 3570 6620 5060
Wire Wire Line
	7255 3785 7255 3890
Wire Wire Line
	7255 3890 6715 3890
Wire Wire Line
	6715 3890 6715 3465
Wire Wire Line
	6715 3465 6480 3465
Wire Wire Line
	6480 3465 6480 3470
Connection ~ 6480 3470
Wire Wire Line
	6480 3470 6485 3470
Wire Wire Line
	4290 3685 4290 3585
Wire Wire Line
	4290 3585 4885 3585
Wire Wire Line
	4885 3585 4885 4325
Wire Wire Line
	4885 4325 7755 4330
Wire Wire Line
	5560 4430 5560 4285
Wire Wire Line
	5560 4285 5490 4285
Wire Wire Line
	7810 4530 5965 4530
Wire Wire Line
	5490 4085 5965 4085
Wire Wire Line
	5965 4085 5965 4530
Wire Wire Line
	7810 4630 6060 4630
Wire Wire Line
	6060 4630 6060 3920
Wire Wire Line
	6060 3920 5590 3920
Wire Wire Line
	6165 3985 6160 4730
Wire Wire Line
	7630 4830 7630 2960
Wire Wire Line
	7630 2960 6720 2970
Connection ~ 6720 2970
Wire Wire Line
	6720 2970 6415 2970
Wire Wire Line
	5850 4185 5850 4730
Wire Wire Line
	7255 3585 7065 3585
Wire Wire Line
	4290 3885 3050 3885
Wire Wire Line
	3225 4600 3225 4185
$Comp
L Connector:Conn_01x06_Male J1
U 1 1 5D76C5C3
P 2635 4505
F 0 "J1" H 2743 4886 50  0000 C CNN
F 1 "Conn_01x06_Male" H 2743 4795 50  0000 C CNN
F 2 "Connector_PinHeader_2.54mm:PinHeader_1x06_P2.54mm_Vertical" H 2635 4505 50  0001 C CNN
F 3 "~" H 2635 4505 50  0001 C CNN
	1    2635 4505
	1    0    0    -1  
$EndComp
Wire Wire Line
	4290 4385 4235 4385
Wire Wire Line
	4235 4805 2835 4805
Wire Wire Line
	3405 4585 4885 4585
Wire Wire Line
	4885 4585 4890 4585
Connection ~ 4885 4585
$Comp
L RF_Module:ESP-12E U1
U 1 1 5CAD91E4
P 4890 3885
F 0 "U1" H 4890 4863 50  0000 C CNN
F 1 "ESP-12E" H 4890 4772 50  0000 C CNN
F 2 "RF_Module:ESP-12E" H 4890 3885 50  0001 C CNN
F 3 "http://wiki.ai-thinker.com/_media/esp8266/esp8266_series_modules_user_manual_v1.1.pdf" H 4540 3985 50  0001 C CNN
	1    4890 3885
	1    0    0    -1  
$EndComp
Wire Wire Line
	7255 3385 5490 3385
Wire Wire Line
	5490 3885 5590 3885
Wire Wire Line
	5590 3885 5590 3920
Wire Wire Line
	5490 3785 7070 3785
Wire Wire Line
	7065 3585 7070 3785
Wire Wire Line
	7255 3685 5490 3685
Wire Wire Line
	5490 3985 6165 3985
Wire Wire Line
	5490 4185 5850 4185
Wire Wire Line
	7810 4430 5560 4430
Wire Wire Line
	6160 4730 7810 4730
Wire Wire Line
	7810 4830 7630 4830
$Comp
L Connector:Conn_01x06_Male J3
U 1 1 5D831AA8
P 8010 4630
F 0 "J3" H 7982 4512 50  0000 R CNN
F 1 "Conn_01x06_Male" H 7982 4603 50  0000 R CNN
F 2 "Connector_PinHeader_2.54mm:PinHeader_1x06_P2.54mm_Vertical" H 8010 4630 50  0001 C CNN
F 3 "~" H 8010 4630 50  0001 C CNN
	1    8010 4630
	-1   0    0    1   
$EndComp
Wire Wire Line
	7810 4330 7755 4330
Wire Wire Line
	5670 3750 5860 3750
Connection ~ 5860 3750
Wire Wire Line
	5860 3750 5860 3865
Wire Wire Line
	5490 3485 5855 3485
Wire Wire Line
	5670 3750 5670 3185
Wire Wire Line
	5670 3185 5490 3185
Connection ~ 5490 3185
Wire Wire Line
	5490 3185 5490 3285
$EndSCHEMATC
